{
  "code": "2",
  "msg": "查询成功，获得数据",
  "page": {
    "curr": 1,
    "next": 2,
    "prev": 1,
    "last": 188,
    "start": 0,
    "size": 50,
    "capacity": 50,
    "total": 9363
  },
  "infoAJLBs": [
    {
      "jjdbh": "201602091613245904",
      "bjrxb": "男",
      "bjdh": "17752316503",
      "bjlb": "行政（治安）案件",
      "bjlxmc": "殴打他人",
      "sfdz": "医院对面自建房",
      "bjnr": "有人来其家将其打了。",
      "gxdwmc": "桃源派出所",
      "x": "496332",
      "y": "2498969.27"
    },
    {
      "jjdbh": "201712091610495918",
      "bjrxb": "男",
      "bjdh": "13995180423",
      "bjlb": "交通类警情",
      "bjlxmc": "道路交通事故",
      "sfdz": "龙珠四路路口",
      "bjnr": "报称：报称：301公交车（粤B22892）被越野车（粤B2F593）碰撞，越野车逃逸。",
      "gxdwmc": "南山交通警察大队",
      "x": "496555.54",
      "y": "2495934.24"
    },
	{
      "jjdbh": "201801091610495918",
      "bjrxb": "男",
      "bjdh": "13345180491",
      "bjlb": "交通类警情",
      "bjlxmc": "道路交通事故",
      "sfdz": "龙珠大道",
      "bjnr": "报称：报称：私家车（粤B2G362）与私家车（粤B24593）碰撞，私家车逃逸。",
      "gxdwmc": "南山交通警察大队",
      "x": "497255.43",
      "y": "2496412.56"
    },
    {
      "jjdbh": "201602091609295925",
      "bjrxb": "男",
      "bjdh": "13469618515",
      "bjlb": "群众求助",
      "bjlxmc": "其它群众求助",
      "sfdz": "禧邻公寓",
      "bjnr": "有一名男子在其家不走，跟其说话也不回答。",
      "gxdwmc": "桃源派出所",
      "x": "495738.33",
      "y": "2496705.29"
    },
    {
      "jjdbh": "201602091548315905",
      "bjrxb": "男",
      "bjdh": "013289568533",
      "bjlb": "灾害事故",
      "bjlxmc": "其它灾害事故",
      "sfdz": "深圳市南山区珠珍理发店",
      "bjnr": "报称看到着火了。",
      "gxdwmc": "深圳市公安局",
      "x": "495395.87",
      "y": "2497449.08"
    },
    {
      "jjdbh": "201602091544155905",
      "bjrxb": "男",
      "bjdh": "13309592764",
      "bjlb": "群众求助",
      "bjlxmc": "日常生活求助",
      "sfdz": "生活超市",
      "bjnr": "报称开锁，需要民警作证。",
      "gxdwmc": "桃源派出所",
      "x": "495181.94",
      "y": "2497000.79"
    }
  ]
}
