{
  "code": "2",
  "msg": "查询成功，获得数据",
  "page": {
    "curr": 1,
    "next": 2,
    "prev": 1,
    "last": 188,
    "start": 0,
    "size": 50,
    "capacity": 50,
    "total": 9363
  },
  "infoAJLBs": [
    {
      "jjdbh": "201602091613245904",
      "bjrxb": "男",
      "bjdh": "17752316503",
      "bjlb": "行政（治安）案件",
      "bjlxmc": "殴打他人",
      "sfdz": "凤城医院对面自建房",
      "bjnr": "有人来其家将其打了。",
      "gxdwmc": "丽景街派出所",
      "x": "106.298754",
      "y": "38.477318"
    },
    {
      "jjdbh": "201602091610495918",
      "bjrxb": "男",
      "bjdh": "13995180423",
      "bjlb": "交通类警情",
      "bjlxmc": "道路交通事故",
      "sfdz": "丰庆路与109交叉口",
      "bjnr": "报称：报称：301公交车（宁A22892）被越野车（宁A2F593）碰撞，越野车逃逸。",
      "gxdwmc": "贺兰交通警察大队",
      "x": "0",
      "y": "0"
    },
    {
      "jjdbh": "201602091609295925",
      "bjrxb": "男",
      "bjdh": "13469618515",
      "bjlb": "群众求助",
      "bjlxmc": "其它群众求助",
      "sfdz": "五河村夕阳红",
      "bjnr": "有一名男子在其家不走，跟其说话也不回答。",
      "gxdwmc": "闽宁镇派出所",
      "x": "0",
      "y": "0"
    },
    {
      "jjdbh": "201602091548315905",
      "bjrxb": "男",
      "bjdh": "013289568533",
      "bjlb": "灾害事故",
      "bjlxmc": "其它灾害事故",
      "sfdz": "灵武尚元明城小区高层",
      "bjnr": "报称看到着火了。",
      "gxdwmc": "灵武市公安局",
      "x": "106.32849",
      "y": "38.089755"
    },
    {
      "jjdbh": "201602091544155905",
      "bjrxb": "男",
      "bjdh": "13309592764",
      "bjlb": "群众求助",
      "bjlxmc": "日常生活求助",
      "sfdz": "富康小区12-1-401",
      "bjnr": "报称开锁，需要民警作证。",
      "gxdwmc": "富宁街派出所",
      "x": "106.255336",
      "y": "38.462353"
    },
    {
      "jjdbh": "201602091542075901",
      "bjrxb": "男",
      "bjdh": "018809666052",
      "bjlb": "刑事案件",
      "bjlxmc": "盗窃",
      "sfdz": "湖滨小区23号楼对面4-422号",
      "bjnr": "报案人宿舍发现50余元现金及一块价值不详的手表被偷。",
      "gxdwmc": "解放西街派出所",
      "x": "106.2782",
      "y": "38.476"
    },
    {
      "jjdbh": "201602091550437441397",
      "bjrxb": "男",
      "bjlb": "群众求助",
      "bjlxmc": "其它群众求助",
      "sfdz": "望远人家C区",
      "bjnr": "报警人称：其儿子尚子程（14岁）昨晚出门跟同学玩，至今未归，打电话不接，回短信求救说在新城火车站等。",
      "gxdwmc": "望远镇派出所",
      "x": "0",
      "y": "0"
    },
    {
      "jjdbh": "201602091555275901",
      "bjrxb": "男",
      "bjdh": "15809689414",
      "bjlb": "群众求助",
      "bjlxmc": "其它群众求助",
      "sfdz": "咨询",
      "bjnr": "咨询：查询车主联系方式？已告知。",
      "gxdwmc": "银川市局指挥中心",
      "x": "106.17151",
      "y": "38.47355"
    },
    {
      "jjdbh": "201602091548385932",
      "bjrxb": "男",
      "bjdh": "13995489516",
      "bjlb": "火灾事故",
      "bjlxmc": "普通建筑火灾",
      "sfdz": "龙凤家园最后一排",
      "bjnr": "发生着火。",
      "gxdwmc": "东塔派出所",
      "x": "0",
      "y": "0"
    },
    {
      "jjdbh": "201602091551545906",
      "bjrxb": "男",
      "bjdh": "13629501630",
      "bjlb": "交通类警情",
      "bjlxmc": "道路交通事故",
      "sfdz": "利民机鳄鱼长城路路口",
      "bjnr": "客货车（不详）将其的出租车（宁AT3243）撞后，逃无人受伤。",
      "gxdwmc": "兴庆区二大队",
      "x": "106.27642",
      "y": "38.45646"
    },
    {
      "jjdbh": "201602091616285933",
      "bjrxb": "男",
      "bjdh": "013895548465",
      "bjlb": "行政（治安）案件",
      "bjlxmc": "殴打他人",
      "sfdz": "宁东双马煤矿",
      "bjnr": "有人打架。",
      "x": "0",
      "y": "0"
    },
    {
      "jjdbh": "201602091619365905",
      "bjrxb": "男",
      "bjdh": "13909513120",
      "bjlb": "交通类警情",
      "bjlxmc": "道路交通事故",
      "sfdz": "北塔公园红绿灯西边",
      "bjnr": "广本车（宁AML909）与雪佛兰车（宁A3M378）追尾，无人受伤。",
      "gxdwmc": "兴庆区一大队",
      "x": "106.27736",
      "y": "38.48395"
    },
    {
      "jjdbh": "201602091543285904",
      "bjrxb": "男",
      "bjdh": "17711804289",
      "bjlb": "行政（治安）案件",
      "bjlxmc": "盗窃",
      "sfdz": "人民广场",
      "bjnr": "其停放的一辆现代车（宁A68G80）车窗玻璃被砸，车内包被盗（内有现金600余元，几张银行卡，身份证）",
      "gxdwmc": "上海西路派出所",
      "x": "106.225414",
      "y": "38.480691"
    },
    {
      "jjdbh": "201602091543065906",
      "bjrxb": "女",
      "bjdh": "13909513374",
      "bjlb": "行政（治安）案件",
      "bjlxmc": "盗窃",
      "sfdz": "人民广场",
      "bjnr": "停放在路边的现代车（宁A68G80）车玻璃被砸，车内一个包被盗。",
      "gxdwmc": "上海西路派出所",
      "x": "106.23041",
      "y": "38.48747"
    },
    {
      "jjdbh": "201602091645025906",
      "bjrxb": "女",
      "bjdh": "15109606829",
      "bjlb": "纠纷",
      "bjlxmc": "其它纠纷",
      "sfdz": "嘉园小区11-4-201",
      "bjnr": "称其家里被水淹了现引起纠纷。",
      "gxdwmc": "新华街派出所",
      "x": "0",
      "y": "0"
    },
    {
      "jjdbh": "201602091646435907",
      "bjrxb": "男",
      "bjdh": "18152506420",
      "bjlb": "群众求助",
      "bjlxmc": "日常生活求助",
      "sfdz": "咨询",
      "bjnr": "询问有人在微信上卖假货向哪里举报，已告知。",
      "gxdwmc": "银川市局指挥中心",
      "x": "106.255143",
      "y": "38.482498"
    },
    {
      "jjdbh": "201602091649245925",
      "bjrxb": "男",
      "bjdh": "15509515505",
      "bjlb": "其他警情",
      "bjlxmc": "其他警情",
      "sfdz": "咨询",
      "bjnr": "咨询：咨询KTV电话，已告知其拨打114.",
      "gxdwmc": "永宁县公安局",
      "x": "106.247888",
      "y": "38.271406"
    },
    {
      "jjdbh": "201602091655275905",
      "bjrxb": "男",
      "bjdh": "13995218548",
      "bjlb": "举报投诉",
      "bjlxmc": "各类线索",
      "sfdz": "凤凰南街星光华小区路中间",
      "bjnr": "报称有辆红色尼桑车（车号不详）女司机在方向盘上爬着副驾驶坐着一名男子两人都睡着叫了没有回应。",
      "gxdwmc": "富宁街派出所",
      "x": "106.2614",
      "y": "38.45246"
    },
    {
      "jjdbh": "201602091702205904",
      "bjrxb": "男",
      "bjdh": "15202615999",
      "bjlb": "交通类警情",
      "bjlxmc": "道路交通事故",
      "sfdz": "苏杭名苑小区物业",
      "bjnr": "福特轿车（宁AES660）与电动车发生碰撞，无人受伤。",
      "gxdwmc": "金凤区一大队",
      "x": "106.2414",
      "y": "38.54947"
    },
    {
      "jjdbh": "201602091659155918",
      "bjrxb": "男",
      "bjdh": "18995002605",
      "bjlb": "举报投诉",
      "bjlxmc": "警务监督",
      "sfdz": "投诉",
      "bjnr": "投诉德胜派出所，态度恶劣，当事人在大厅被打了，警察在场说没有看到。",
      "gxdwmc": "德胜工业园区派出所",
      "x": "106.301976",
      "y": "38.530983"
    },
    {
      "jjdbh": "201602091624265903",
      "bjrxb": "男",
      "bjdh": "18295199037",
      "bjlb": "群众求助",
      "bjlxmc": "日常生活求助",
      "sfdz": "北新小区10-2-201",
      "bjnr": "称其家中的玻璃被不明物体击穿。",
      "gxdwmc": "玉皇阁北街派出所",
      "x": "106.29362",
      "y": "38.47714"
    },
    {
      "jjdbh": "201602091630325902",
      "bjrxb": "女",
      "bjdh": "13995303681",
      "bjlb": "群众求助",
      "bjlxmc": "其它群众求助",
      "sfdz": "咨询",
      "bjnr": "咨询黄酒是否能上公交车，已告知。",
      "gxdwmc": "银川市局指挥中心",
      "x": "106.3042",
      "y": "38.48905"
    },
    {
      "jjdbh": "201602091537375904",
      "bjrxb": "女",
      "bjdh": "2167999",
      "bjlb": "行政（治安）案件",
      "bjlxmc": "盗窃",
      "sfdz": "金凤万达大玩家",
      "bjnr": "其的钱包被盗，内有现金600余元。",
      "gxdwmc": "上海西路派出所",
      "x": "0",
      "y": "0"
    },
    {
      "jjdbh": "201602091617025910",
      "bjrxb": "男",
      "bjdh": "13995381448",
      "bjlb": "行政（治安）案件",
      "bjlxmc": "家庭暴力",
      "sfdz": "宁大南校区北门或东门",
      "bjnr": "报案人是儿童，报称母亲被父亲殴打。",
      "gxdwmc": "长城中路派出所",
      "x": "106.22513",
      "y": "38.47198"
    },
    {
      "jjdbh": "201602111416495932",
      "bjrxb": "男",
      "bjdh": "13099591501",
      "bjlb": "群众求助",
      "bjlxmc": "日常生活求助",
      "sfdz": "杜家滩九队",
      "bjnr": "有人闹事，原因不详。",
      "gxdwmc": "崇兴派出所",
      "x": "106.338961",
      "y": "38.034223"
    },
    {
      "jjdbh": "201602111101430878308",
      "bjrxb": "女",
      "bjlb": "举报投诉",
      "bjlxmc": "各类线索",
      "sfdz": "灵武市开元二楼办公室",
      "bjnr": "报称：抓到一个小偷，需处理。",
      "gxdwmc": "东塔派出所",
      "x": "0",
      "y": "0"
    },
    {
      "jjdbh": "201602111217345932",
      "bjrxb": "男",
      "bjdh": "15378940966",
      "bjlb": "群众求助",
      "bjlxmc": "日常生活求助",
      "sfdz": "谢家井巷矿务局家属楼3-1-201",
      "bjnr": "报称：家里的水管破裂，求助。",
      "gxdwmc": "东塔派出所",
      "x": "106.331093",
      "y": "38.091124"
    },
    {
      "jjdbh": "201602111124455932",
      "bjrxb": "男",
      "bjdh": "013079560378",
      "bjlb": "交通类警情",
      "bjlxmc": "道路交通事故",
      "sfdz": "南熏路与育才街路口",
      "bjnr": "皮卡车（宁B51599）与轿车相撞，无人受伤。",
      "gxdwmc": "灵武交通警察大队",
      "x": "106.333538",
      "y": "38.082808"
    },
    {
      "jjdbh": "201602111243235932",
      "bjrxb": "男",
      "bjdh": "15379503678",
      "bjlb": "交通类警情",
      "bjlxmc": "道路交通事故",
      "sfdz": "枣园湖畔B区南大门门口",
      "bjnr": "一越野车（宁AQU830）与现代轿车（宁AAC567）相撞。",
      "gxdwmc": "灵武交通警察大队",
      "x": "106.329429",
      "y": "38.088166"
    },
    {
      "jjdbh": "201602111432015932",
      "bjrxb": "男",
      "bjdh": "13649509033",
      "bjlb": "行政（治安）案件",
      "bjlxmc": "家庭暴力",
      "sfdz": "唐城嘉艺影城协对面天籁之音KTV",
      "bjnr": "服务员被老公殴打。",
      "gxdwmc": "东塔派出所",
      "x": "0",
      "y": "0"
    },
    {
      "jjdbh": "201602111052505906",
      "bjrxb": "男",
      "bjdh": "15509571709",
      "bjlb": "行政（治安）案件",
      "bjlxmc": "盗窃",
      "sfdz": "物化兴州苑",
      "bjnr": "车玻璃被砸车内的所有的物品被盗。",
      "gxdwmc": "南梁派出所",
      "x": "106.154739",
      "y": "38.481281"
    },
    {
      "jjdbh": "201602111414545932",
      "bjrxb": "男",
      "bjdh": "13639512328",
      "bjlb": "举报投诉",
      "bjlxmc": "各类线索",
      "sfdz": "郝家桥胡二大队淑琴商店",
      "bjnr": "聚众赌博。",
      "gxdwmc": "郝家桥派出所",
      "x": "0",
      "y": "0"
    },
    {
      "jjdbh": "201602110907435905",
      "bjrxm": "固定点报警",
      "bjrxb": "男",
      "bjdh": "6915273",
      "bjlb": "其他警情",
      "bjlxmc": "其他警情",
      "sfdz": "治平路医学院南门",
      "bjnr": "报案人称有人要殴打其。",
      "gxdwmc": "银川市局指挥中心",
      "x": "106.279444",
      "y": "38.413611"
    },
    {
      "jjdbh": "20160211914375933",
      "bjrxb": "男",
      "bjdh": "13995184634",
      "bjlb": "其他警情",
      "bjlxmc": "其他警情",
      "sfdz": "宁东马跑圈3队赵武家",
      "bjnr": "报称：门被撬了，800现金被盗。",
      "x": "0",
      "y": "0"
    },
    {
      "jjdbh": "201602111452085902",
      "bjrxb": "男",
      "bjdh": "18295180806",
      "bjlb": "交通类警情",
      "bjlxmc": "道路交通事故",
      "sfdz": "正源街金凤万达一号门口",
      "bjnr": "比亚迪（陕A2113X）与尼桑车（宁ACK751）刮蹭，无人受伤。",
      "gxdwmc": "兴庆区一大队",
      "x": "106.2484",
      "y": "38.48746"
    },
    {
      "jjdbh": "201602111342505906",
      "bjrxb": "男",
      "bjdh": "18795317662",
      "bjlb": "刑事案件",
      "bjlxmc": "盗窃",
      "sfdz": "胜利街欣安小区",
      "bjnr": "房门被撬，价值2000余元的电动三轮车被盗。",
      "gxdwmc": "银古路派出所",
      "x": "106.27541",
      "y": "38.44546"
    },
    {
      "jjdbh": "201602111342525901",
      "bjrxb": "男",
      "bjdh": "17795012345",
      "bjlb": "刑事案件",
      "bjlxmc": "盗窃",
      "sfdz": "丽景街美德哼大酒店",
      "bjnr": "其停放在此处的汉兰达越野车（宁Ａ９Ｚ２８２）车玻璃被砸，车内价值１４００元钱的两条烟被盗.",
      "gxdwmc": "银古路派出所",
      "x": "106.293563",
      "y": "38.452518"
    },
    {
      "jjdbh": "201602110753165905",
      "bjrxm": "曾丽娟",
      "bjrxb": "男",
      "bjdh": "3979187",
      "bjlb": "刑事案件",
      "bjlxmc": "盗窃",
      "sfdz": "老火车站易不落网吧",
      "bjnr": "报称其一部价值2000余元三星手机（13469617661）被盗。",
      "gxdwmc": "西花园路派出所",
      "x": "0",
      "y": "0"
    },
    {
      "jjdbh": "20160211921455920",
      "bjrxb": "男",
      "bjdh": "15309515152",
      "bjlb": "交通类警情",
      "bjlxmc": "道路交通事故",
      "sfdz": "新华东街建发桥头",
      "bjnr": "皮卡（宁AMQ395）司机报称昨晚1点左右将一辆车租车刮蹭后离开，请联系报警人。",
      "x": "106.357278",
      "y": "38.558674"
    },
    {
      "jjdbh": "20160211932285920",
      "bjrxb": "男",
      "bjdh": "18909562518",
      "bjlb": "群众求助",
      "bjlxmc": "日常生活求助",
      "sfdz": "前进街长青巷",
      "bjnr": "昨晚12点多其家孩子（谢春秋羽，女孩，14岁，个头170，上身穿深蓝色上衣，黑色紧身裤，手机号18095131526）用手机定位在前进街长青巷走失，后联系不到，报警人要求调取监控。",
      "x": "106.345004",
      "y": "38.551029"
    },
    {
      "jjdbh": "201602110930015902",
      "bjrxb": "男",
      "bjdh": "6883815",
      "bjlb": "群众求助",
      "bjlxmc": "日常生活求助",
      "sfdz": "高台小区9-营业房13079511389",
      "bjnr": "营业房漏水，需要民警帮助。",
      "gxdwmc": "中山南街派出所",
      "x": "0",
      "y": "0"
    },
    {
      "jjdbh": "201602111032265903",
      "bjrxb": "男",
      "bjdh": "015761415352",
      "bjlb": "行政（治安）案件",
      "bjlxmc": "殴打他人",
      "sfdz": "大地东方小区",
      "bjnr": "报案人被认识的人殴打，具体情况不详。",
      "gxdwmc": "银川市局指挥中心",
      "x": "106.29745",
      "y": "38.47049"
    },
    {
      "jjdbh": "201602111129315925",
      "bjrxb": "女",
      "bjdh": "015909665820",
      "bjlb": "其他警情",
      "bjlxmc": "其他警情",
      "sfdz": "咨询",
      "bjnr": "咨询：高速交警电话，已告知。",
      "gxdwmc": "永宁县公安局",
      "x": "105.97717",
      "y": "38.32737"
    },
    {
      "jjdbh": "201602111140135924",
      "bjrxb": "男",
      "bjdh": "18995116829",
      "bjlb": "其他警情",
      "bjlxmc": "其他警情",
      "sfdz": "咨询",
      "bjnr": "询问：城关所电话，已告知",
      "gxdwmc": "永宁县公安局",
      "x": "106.255723",
      "y": "38.275144"
    },
    {
      "jjdbh": "201602110704155925",
      "bjrxb": "男",
      "bjdh": "15226283526",
      "bjlb": "交通类警情",
      "bjlxmc": "道路交通事故",
      "sfdz": "杨和四期门口",
      "bjnr": "起亚轿车（宁APS550）停路边让车撞了，无人受伤。",
      "gxdwmc": "永宁县公安局交警大队",
      "x": "0",
      "y": "0"
    },
    {
      "jjdbh": "201602111106345924",
      "bjrxb": "男",
      "bjdh": "18309592225",
      "bjlb": "交通类警情",
      "bjlxmc": "道路交通事故",
      "sfdz": "玉海东滩一组",
      "bjnr": "报称：微型双牌客货（宁A00C35）与三轮车刮擦，无人受伤。",
      "gxdwmc": "永宁县公安局交警大队",
      "x": "0",
      "y": "0"
    },
    {
      "jjdbh": "201602111243515906",
      "bjrxb": "男",
      "bjdh": "18709675066",
      "bjlb": "交通类警情",
      "bjlxmc": "道路交通事故",
      "sfdz": "华晨宾馆门口",
      "bjnr": "起亚车（宁A3Y996）与电动车刮擦，无人受伤、",
      "gxdwmc": "兴庆区一大队",
      "x": "106.28543",
      "y": "38.46948"
    },
    {
      "jjdbh": "201602110940125924",
      "bjrxb": "男",
      "bjdh": "13639593411",
      "bjlb": "其他警情",
      "bjlxmc": "其他警情",
      "sfdz": "咨询",
      "bjnr": "询问：银川兴泾镇派出所电话，已告知。",
      "gxdwmc": "永宁县公安局",
      "x": "0",
      "y": "0"
    },
    {
      "jjdbh": "201602111159095925",
      "bjrxb": "男",
      "bjdh": "13995394556",
      "bjlb": "交通类警情",
      "bjlxmc": "道路交通事故",
      "sfdz": "老行政中心路口",
      "bjnr": "奔腾轿车（宁A83H87）与电动三轮车碰撞，无人受伤。",
      "gxdwmc": "永宁县公安局交警大队",
      "x": "0",
      "y": "0"
    },
    {
      "jjdbh": "201602111117265924",
      "bjrxb": "女",
      "bjdh": "13995070803",
      "bjlb": "其他警情",
      "bjlxmc": "其他警情",
      "sfdz": "咨询",
      "bjnr": "询问：交警队电话，已告知。",
      "gxdwmc": "永宁县公安局",
      "x": "0",
      "y": "0"
    }
  ]
}
